<?xml version="1.0" encoding="iso-8859-1"?>
<!-- Generator: Adobe Illustrator 19.0.0, SVG Export Plug-In . SVG Version: 6.00 Build 0)  -->
<svg xmlns="http://www.w3.org/2000/svg" xmlns:xlink="http://www.w3.org/1999/xlink" version="1.1" id="Layer_1" x="0px" y="0px" viewBox="0 0 510.976 510.976" style="enable-background:new 0 0 510.976 510.976;" xml:space="preserve" width="512" height="512">
<g>
	<g>
		<g>
			<path style="fill:#5D7291;" d="M247.765,197.843l-0.899-2.231l-39.772,15.061l1.881,3.271l16.36,18.74     c1.83,2.1,4.8,2.79,7.37,1.72l12.79-5.31c2.58-1.06,4.18-3.65,3.99-6.43L247.765,197.843z"/>
			<path style="fill:#526882;" d="M246.051,228.798c-2.57,1.07-5.54,0.38-7.37-1.72l-16.36-18.74l-1.62-2.818l-13.607,5.153     l1.881,3.271l16.36,18.74c1.83,2.1,4.8,2.79,7.37,1.72l12.79-5.31c0.245-0.101,0.473-0.228,0.7-0.355L246.051,228.798z"/>
			<g id="XMLID_31_">
				<g>
					<g>
						<path style="fill:#6C7D98;" d="M421.915,382.203c2.38,2.38,3.86,5.68,3.86,9.32c0,7.27-5.9,13.17-13.17,13.17h-6.73h-194.14        v-26.35h200.87C416.235,378.343,419.535,379.823,421.915,382.203z"/>
					</g>
					<path style="fill:#62738C;" d="M412.605,391.518h-6.73h-194.14v13.175h194.14h6.73c7.27,0,13.17-5.9,13.17-13.17       c0-2.403-0.655-4.65-1.778-6.59C421.717,388.865,417.473,391.518,412.605,391.518z"/>
					<g>
						<path style="fill:#B3C7E0;" d="M387.095,313.713v14.42c0,3.198-2.592,5.79-5.79,5.79h-94.65c-3.623,0-6.56-2.937-6.56-6.56        v-19.44h101.21C384.502,307.923,387.095,310.515,387.095,313.713z"/>
					</g>
					<g>
						<path style="fill:#5D7291;" d="M387.095,287.713v14.42c0,3.2-2.59,5.79-5.79,5.79h-101.21h-42l-28-26h171.21        C384.505,281.923,387.095,284.513,387.095,287.713z"/>
					</g>
					<path style="fill:#9BB5D1;" d="M306.815,323.875c-3.623,0-6.56-2.937-6.56-6.561v-9.392h-20.16v19.44       c0,3.623,2.937,6.56,6.56,6.56h94.65c3.198,0,5.79-2.592,5.79-5.79v-4.258H306.815z"/>
					<path style="fill:#526882;" d="M300.255,297.875h-32.881c-5.861,0-11.506-2.217-15.801-6.205l-10.497-9.747h-30.981l28,26h42       h101.21c3.198,0,5.79-2.592,5.79-5.79v-4.258H300.255z"/>
					<g>
						<path style="fill:#6C7D98;" d="M215.095,281.923l-14.98-13.91c-1.5-1.4-3.64-1.82-5.6-1.19c-5.26,1.7-10.95,2.44-16.87,2.02        c-22.39-1.61-40.24-20.14-41.08-42.57c-0.84-22.7,15.36-41.76,36.82-45.43l5.768-0.021v-1.885l-19.287-58.608l-9.25,3.574        c-43.28,13.01-74.81,53.16-74.81,100.67c0,38.48,20.68,72.12,51.52,90.43l80.95,11.06        c12.612-3.399,24.301-9.065,34.562-16.564c0.567-0.414,0.61-1.249,0.096-1.727L215.095,281.923z"/>
					</g>
					<g>
						<path style="fill:#62738C;" d="M151.256,315.235c-30.84-18.31-51.52-51.95-51.52-90.43c0-43.005,25.836-79.978,62.835-96.252        l-2.707-8.224l-9.25,3.574c-43.28,13.01-74.81,53.16-74.81,100.67c0,38.48,20.68,72.12,51.52,90.43l80.95,11.06        c2.301-0.62,4.559-1.341,6.795-2.109L151.256,315.235z"/>
					</g>
					<g>
						<path style="fill:#5D7291;" d="M127.325,315.003c9.69-7.48,21.83-11.92,35.02-11.92c18.79,0,35.47,9.03,45.93,22.98        c7.2,9.59,11.46,21.5,11.46,34.41v17.87v39.35h-114.63h-0.15v-57.22C104.955,341.963,113.725,325.493,127.325,315.003z         M182.105,353.883c0-10.91-8.85-19.75-19.76-19.75s-19.75,8.84-19.75,19.75c0,10.91,8.84,19.76,19.75,19.76        S182.105,364.793,182.105,353.883z"/>
					</g>
					<g>
						<path style="fill:#52667F;" d="M143.446,359.618c-0.55-1.816-0.852-3.74-0.852-5.735c0-4.348,1.421-8.354,3.801-11.616        c3.652-10.917,10.474-20.382,19.396-27.263c4.726-3.648,10.037-6.566,15.766-8.605c-6.009-2.135-12.471-3.315-19.213-3.315        c-13.19,0-25.33,4.44-35.02,11.92c-13.6,10.49-22.37,26.96-22.37,45.47v57.22h0.15h38.316v-57.22        C143.421,360.186,143.442,359.904,143.446,359.618z"/>
					</g>
					<path style="fill:#B3C7E0;" d="M168.065,29.123l-6.98-16.8c-1.65-3.98-6.22-5.87-10.21-4.22l-9.58,3.98       c-3.99,1.65-5.87,6.23-4.22,10.21l6.97,16.8l0.982,2.883l23.625-10.439L168.065,29.123z"/>
					<path style="fill:#9BB5D1;" d="M156.569,36.38l-0.982-2.883l-6.97-16.8c-1.197-2.888-0.529-6.086,1.449-8.258l-8.771,3.644       c-3.99,1.65-5.87,6.23-4.22,10.21l6.97,16.8l0.982,2.883l23.625-10.439l-0.109-0.448L156.569,36.38z"/>
					<path style="fill:#5D7291;" d="M188.185,48.913l-6.97-16.79c-1.65-3.99-6.23-5.88-10.21-4.22l-2.94,1.22l-24.02,9.97       l-2.94,1.22c-3.99,1.65-5.88,6.23-4.22,10.21l6.97,16.8l2.051,4.871L189.2,51.865L188.185,48.913z"/>
					<path style="fill:#526882;" d="M162.188,63.073l-2.051-4.871l-6.97-16.8c-0.852-2.042-0.764-4.239,0.057-6.12l-9.179,3.81       l-2.94,1.22c-3.99,1.65-5.88,6.23-4.22,10.21l6.97,16.8l2.051,4.871L189.2,51.865l-0.437-1.271L162.188,63.073z"/>
				</g>
			</g>
			<g>
				<polygon style="fill:#B3C7E0;" points="405.875,404.693 219.735,404.693 105.105,404.693 93.585,474.313 93.585,484.623       417.385,484.623 417.385,474.313     "/>
			</g>
			<polygon style="fill:#9BB5D1;" points="154.115,404.693 105.105,404.693 93.585,474.313 93.585,484.623 142.595,484.623      142.595,474.313    "/>
			<g>
				<path style="fill:#6C7D98;" d="M422.015,474.313c8.05,0,14.58,6.53,14.58,14.58c0,4.03-1.63,7.67-4.27,10.31      c-2.64,2.64-6.29,4.27-10.31,4.27H88.965c-8.05,0-14.58-6.53-14.58-14.58c0-4.03,1.63-7.67,4.27-10.31s6.28-4.27,10.31-4.27      h4.62h323.8H422.015z"/>
			</g>
			<path style="fill:#62738C;" d="M432.325,484.623c-2.64,2.64-6.29,4.27-10.31,4.27H88.965c-5.392,0-10.091-2.938-12.614-7.292     c-1.244,2.146-1.966,4.63-1.966,7.292c0,8.05,6.53,14.58,14.58,14.58h333.05c4.02,0,7.67-1.63,10.31-4.27     c2.64-2.64,4.27-6.28,4.27-10.31c0-2.657-0.723-5.142-1.966-7.288C433.989,482.708,433.221,483.727,432.325,484.623z"/>
			<path style="fill:#B3C7E0;" d="M257.365,181.643l-8.86-21.34l-35.27-84.97l-8.86-21.34c-2.31-5.56-8.68-8.19-14.24-5.88     l-46.28,19.21l-1.94,0.81c-5.56,2.3-8.19,8.68-5.89,14.23l53,127.66c2.3,5.55,8.68,8.19,14.23,5.88l48.23-20.02     C257.035,193.573,259.675,187.203,257.365,181.643z"/>
			<path style="fill:#9BB5D1;" d="M254.642,175.086l-34.016,14.12c-5.55,2.31-11.93-0.33-14.23-5.88L156.122,62.231l-12.267,5.092     l-1.94,0.81c-5.56,2.3-8.19,8.68-5.89,14.23l53,127.66c2.3,5.55,8.68,8.19,14.23,5.88l48.23-20.02     c5.55-2.31,8.19-8.68,5.88-14.24L254.642,175.086z"/>
			<g>
				<path style="fill:#6C7D98;" d="M213.235,75.333l35.27,84.97l-24.57,10.2c-4.28,1.78-9.2-0.25-10.97-4.53l-28.84-69.47      c-1.78-4.28,0.25-9.19,4.53-10.97L213.235,75.333z"/>
			</g>
		</g>
	</g>
	<g>
		<path d="M423.76,466.886l-9.065-54.802c10.42-1.052,18.58-9.874,18.58-20.566c0-11.398-9.273-20.672-20.671-20.672H227.237    v-10.375c0-10.898-2.713-21.169-7.479-30.195c9.869-3.62,19.14-8.595,27.672-14.854h25.164v18.5c0,4.143,3.358,7.5,7.5,7.5h101.21    c7.328,0,13.29-5.962,13.29-13.29v-14.42c0-2.077-0.493-4.037-1.346-5.79c0.853-1.753,1.346-3.713,1.346-5.79v-14.42    c0-7.328-5.962-13.29-13.29-13.29H218.04l-12.82-11.904c-3.462-3.215-8.447-4.296-13.003-2.83    c-4.506,1.452-9.228,2.014-14.03,1.67c-18.448-1.324-33.438-16.86-34.127-35.368c-0.653-17.541,11.24-33.084,28.023-37.209    l10.011,24.114c2.935,7.067,9.795,11.34,17.012,11.34c2.346,0,4.729-0.452,7.027-1.405l0.472-0.196l13.083,14.982    c2.716,3.11,6.579,4.79,10.533,4.79c1.803,0,3.625-0.35,5.364-1.071l12.789-5.31c5.554-2.305,9.007-7.884,8.591-13.884    l-1.38-19.916c8.512-4.292,12.419-14.511,8.706-23.455l-8.86-21.341c0,0,0-0.001,0-0.001l-35.274-84.969    c-0.001-0.002-0.002-0.004-0.003-0.006l-8.857-21.335c-1.883-4.538-5.421-8.07-9.961-9.946c-2.826-1.169-5.83-1.607-8.79-1.317    l-4.404-10.609c-2.664-6.413-9.209-10.052-15.79-9.344l-4.338-10.45c-1.568-3.778-4.514-6.72-8.294-8.282    c-3.78-1.562-7.943-1.56-11.721,0.01l-9.579,3.977c-3.778,1.567-6.72,4.514-8.282,8.294c-1.563,3.78-1.559,7.943,0.009,11.722    l4.338,10.45c-5.146,4.159-7.191,11.365-4.529,17.781l4.408,10.617c-6.058,5.016-8.434,13.589-5.265,21.222l13.831,33.317    c-34.636,12.437-61.553,41.607-70.936,77.38c-1.051,4.007,1.345,8.106,5.352,9.158c4.005,1.048,8.106-1.346,9.157-5.352    c7.98-30.421,30.583-55.343,59.786-66.452l16.997,42.492c-20.823,7.535-35.064,27.955-34.215,50.765    c0.473,12.699,5.642,24.782,14.556,34.022c8.92,9.245,20.812,14.839,33.488,15.748c6.381,0.459,12.675-0.23,18.719-2.047    l36.1,33.521c-6.603,4.059-13.65,7.286-21.054,9.668c-11.896-13.408-29.239-21.88-48.531-21.88    c-12.981,0-25.074,3.846-35.228,10.438c-26.525-17.515-42.792-46.478-43.767-78.407c-0.124-4.063-3.456-7.271-7.492-7.271    c-0.078,0-0.155,0.001-0.233,0.004c-4.14,0.126-7.394,3.585-7.268,7.725c1.079,35.342,18.387,67.531,46.801,87.928    c-10.963,11.625-17.703,27.272-17.703,44.474v44.218c0,0.072,0.009,0.141,0.011,0.212l-10.253,61.984    c-11.361,0.895-20.335,10.419-20.335,22.006c0,12.177,9.906,22.083,22.083,22.083h333.048c12.176,0,22.083-9.906,22.083-22.083    C444.095,477.306,435.121,467.781,423.76,466.886z M230.507,227.2l-9.021-10.331l19.517-8.102l0.948,13.682L230.507,227.2z     M238.703,156.253l-17.648,7.326c-0.228,0.093-0.457,0.094-0.682,0.001c-0.226-0.094-0.389-0.256-0.483-0.483L191.05,93.629    c-0.094-0.227-0.094-0.456,0-0.683c0.093-0.226,0.255-0.389,0.482-0.482l17.648-7.326L238.703,156.253z M147.908,57.519    l-4.097-9.868c-0.067-0.16,0.009-0.345,0.169-0.411l0,0c0,0,0,0,0,0l29.899-12.412l0,0c0.039-0.016,0.08-0.023,0.12-0.023    c0.124,0,0.24,0.072,0.291,0.192l4.097,9.87L147.908,57.519z M144.001,19.179c0.05-0.12,0.134-0.154,0.17-0.17l9.581-3.977    c0.022-0.01,0.063-0.026,0.118-0.026c0.035,0,0.075,0.007,0.121,0.025c0.12,0.05,0.155,0.134,0.17,0.171l4.097,9.869l0,0    l-10.159,4.217l-4.097-9.868C143.987,19.384,143.952,19.299,144.001,19.179z M144.786,75.057l46.278-19.212l0,0    c0.001,0,0.002-0.001,0.003-0.001l1.944-0.807c0.463-0.192,0.902-0.261,1.292-0.261c0.559,0,1.018,0.141,1.303,0.259    c0.485,0.2,1.369,0.705,1.837,1.835l5.984,14.415l-17.647,7.326c-3.92,1.627-6.973,4.684-8.594,8.607    c-1.622,3.923-1.618,8.243,0.01,12.163l28.838,69.467c1.627,3.921,4.685,6.974,8.607,8.595c1.958,0.81,4.014,1.214,6.07,1.214    c2.064,0,4.129-0.408,6.093-1.224l17.648-7.327l5.984,14.415c0.717,1.729-0.105,3.717-1.832,4.435l-48.224,20.021    c-1.73,0.715-3.718-0.105-4.435-1.833L142.953,79.49C142.236,77.763,143.058,75.774,144.786,75.057z M379.595,326.423h-92v-11h92    V326.423z M379.595,289.423v11l0,0H246.04l-11.846-11H379.595z M412.604,385.847c3.127,0,5.671,2.544,5.671,5.672    s-2.544,5.672-5.671,5.672h-129.16c-4.142,0-7.5,3.357-7.5,7.5s3.358,7.5,7.5,7.5h116.064l9.035,54.619H102.432l9.035-54.619    h141.978l0,0c4.142,0,7.5-3.357,7.5-7.5s-3.358-7.5-7.5-7.5h-26.207v-11.344H412.604z M112.458,360.472    c0-27.509,22.38-49.89,49.89-49.89s49.89,22.381,49.89,49.89v36.718h-99.779V360.472z M422.012,495.976H88.964    c-3.905,0-7.083-3.178-7.083-7.083s3.177-7.082,7.083-7.082h333.048c3.905,0,7.083,3.177,7.083,7.082    S425.917,495.976,422.012,495.976z"/>
		<path d="M162.348,326.629c-15.03,0-27.257,12.228-27.257,27.257s12.228,27.257,27.257,27.257    c15.029,0,27.257-12.228,27.257-27.257S177.377,326.629,162.348,326.629z M162.348,366.143c-6.759,0-12.257-5.498-12.257-12.257    s5.499-12.257,12.257-12.257c6.758,0,12.257,5.498,12.257,12.257S169.106,366.143,162.348,366.143z"/>
	</g>
</g>















</svg>
